com/datascouting/dachs/alert/service/util/TwitterMissingActions$TweetList.class
com/datascouting/dachs/alert/service/crud/system/RoleServiceImpl.class
com/datascouting/dachs/alert/service/chart/server/rendering/ChartServerRenderingServiceImpl.class
com/datascouting/dachs/alert/service/mail/preparator/MailPreparator.class
com/datascouting/dachs/alert/service/mail/template/TemplateService.class
com/datascouting/dachs/alert/service/chart/server/rendering/trend/TrendChartServerRenderingServiceImpl.class
com/datascouting/dachs/alert/service/mail/sender/SMTPMailSender.class
com/datascouting/dachs/alert/service/util/DateFormatUtil.class
com/datascouting/dachs/alert/service/alert/live/report/model/LiveDetection.class
com/datascouting/dachs/alert/service/mail/model/Mail$MailBuilder.class
com/datascouting/dachs/alert/service/chart/server/rendering/util/FileUtils.class
com/datascouting/dachs/alert/service/chart/server/rendering/conversation/health/ConversationHealthChartServerRenderingServiceImpl.class
com/datascouting/dachs/alert/service/chart/charts/trend/TrendResponse.class
com/datascouting/dachs/alert/service/chart/charts/conversation/health/ConversationHealthResponse$MetricRow.class
com/datascouting/dachs/alert/service/chart/charts/trend/TrendChartService.class
com/datascouting/dachs/alert/service/config/DachsAlertConfigurationProperties.class
com/datascouting/dachs/alert/service/monitoring/MonitorTwitterTimelinesImpl.class
com/datascouting/dachs/alert/service/chart/server/rendering/util/ChartDataScriptUtil.class
com/datascouting/dachs/alert/service/chart/charts/trend/TrendChartServiceImpl.class
com/datascouting/dachs/alert/service/crud/custom/UserConnectionService.class
com/datascouting/dachs/alert/service/microservice/detection/api/DetectionApiClient.class
com/datascouting/dachs/alert/service/chart/charts/conversation/health/ConversationHealthChartService.class
com/datascouting/dachs/alert/service/mail/model/Mail.class
com/datascouting/dachs/alert/service/monitoring/MonitorTwitterTimelines.class
com/datascouting/dachs/alert/service/crud/system/UserService.class
com/datascouting/dachs/alert/service/monitoring/model/EmptyTweet.class
com/datascouting/dachs/alert/service/alert/report/schedule/CronSchedulerImpl.class
com/datascouting/dachs/alert/service/chart/charts/conversation/health/ConversationHealthResponse$ConversationHealthResponseBuilder.class
com/datascouting/dachs/alert/service/mail/template/TemplateServiceImpl.class
com/datascouting/dachs/alert/service/microservice/detection/api/model/DetectionResponse.class
com/datascouting/dachs/alert/service/monitoring/ProcessPendingTweetHateDetectionImpl.class
com/datascouting/dachs/alert/service/chart/server/rendering/ChartServerRenderingService.class
com/datascouting/dachs/alert/service/crud/custom/UserConnectionServiceImpl.class
com/datascouting/dachs/alert/service/crud/GenericCrudService.class
com/datascouting/dachs/alert/service/util/NumberUtil.class
com/datascouting/dachs/alert/service/alert/live/report/LiveAlertServiceImpl.class
com/datascouting/dachs/alert/service/microservice/detection/api/model/DetectionResponse$DetectionResponseBuilder.class
com/datascouting/dachs/alert/service/chart/charts/trend/TrendResponse$TrendRow.class
com/datascouting/dachs/alert/service/alert/live/report/LiveAlertService.class
com/datascouting/dachs/alert/service/alert/report/schedule/startup/StartupLoader.class
com/datascouting/dachs/alert/service/alert/report/schedule/CronScheduler.class
com/datascouting/dachs/alert/service/alert/report/AlertReportTaskServiceImpl.class
com/datascouting/dachs/alert/service/crud/system/UserServiceImpl.class
com/datascouting/dachs/alert/service/util/UrlUtil.class
com/datascouting/dachs/alert/service/chart/charts/trend/TrendResponse$TrendRow$TrendRowBuilder.class
com/datascouting/dachs/alert/service/chart/charts/conversation/health/ConversationHealthResponse.class
com/datascouting/dachs/alert/service/crud/system/RoleService.class
com/datascouting/dachs/alert/service/mail/action/AlertReportMailAction.class
com/datascouting/dachs/alert/service/chart/server/rendering/html/screenshot/HtmlScreenshotService.class
com/datascouting/dachs/alert/service/util/DateUtil.class
com/datascouting/dachs/alert/service/chart/server/rendering/conversation/health/ConversationHealthChartServerRenderingService.class
com/datascouting/dachs/alert/service/chart/charts/conversation/health/ConversationHealthChartServiceImpl.class
com/datascouting/dachs/alert/service/monitoring/ProcessPendingTweetHateDetection.class
com/datascouting/dachs/alert/service/chart/server/rendering/trend/TrendChartServerRenderingService.class
com/datascouting/dachs/alert/service/DachsAlertServiceConfiguration.class
com/datascouting/dachs/alert/service/opt/out/OptOutService.class
META-INF/spring-configuration-metadata.json
com/datascouting/dachs/alert/service/mail/action/LiveAlertReportMailActionImpl.class
com/datascouting/dachs/alert/service/opt/out/OptOutServiceImpl.class
com/datascouting/dachs/alert/service/util/ThresholdUtil.class
com/datascouting/dachs/alert/service/crud/system/TweetHateDetectionService.class
com/datascouting/dachs/alert/service/config/DachsAlertConfigurationProperties$JwtConfigProperties.class
com/datascouting/dachs/alert/service/microservice/detection/api/DetectionApiClientImpl.class
com/datascouting/dachs/alert/service/crud/system/TweetHateDetectionServiceImpl.class
com/datascouting/dachs/alert/service/mail/action/LiveAlertReportMailAction.class
com/datascouting/dachs/alert/service/chart/charts/trend/TrendResponse$TrendResponseBuilder.class
com/datascouting/dachs/alert/service/chart/server/rendering/html/screenshot/HtmlScreenshotServiceImpl.class
com/datascouting/dachs/alert/service/mail/sender/MailSender.class
com/datascouting/dachs/alert/service/alert/report/schedule/context/CronServiceContextImpl.class
com/datascouting/dachs/alert/service/util/TwitterMissingActions.class
com/datascouting/dachs/alert/service/mail/action/AlertReportMailActionImpl.class
com/datascouting/dachs/alert/service/alert/report/AlertReportTaskService.class
com/datascouting/dachs/alert/service/cron/CronEvaluation.class
com/datascouting/dachs/alert/service/alert/live/report/model/LiveDetection$LiveDetectionBuilder.class
com/datascouting/dachs/alert/service/alert/report/schedule/context/CronServiceContext.class
com/datascouting/dachs/alert/service/chart/charts/conversation/health/ConversationHealthResponse$MetricRow$MetricRowBuilder.class
com/datascouting/dachs/alert/service/config/DachsAlertConfigurationProperties$ChartConfigProperties.class
