/mnt/c/Users/chbakouras/Projects/dachs-alert/dachs-alert-domain/src/main/java/com/datascouting/dachs/alert/domain/repository/UserRepository.java
/mnt/c/Users/chbakouras/Projects/dachs-alert/dachs-alert-domain/target/generated-sources/java/com/datascouting/dachs/alert/domain/entity/QRole.java
/mnt/c/Users/chbakouras/Projects/dachs-alert/dachs-alert-domain/src/main/java/com/datascouting/dachs/alert/domain/DachsAlertDomainConfiguration.java
/mnt/c/Users/chbakouras/Projects/dachs-alert/dachs-alert-domain/src/main/java/com/datascouting/dachs/alert/domain/entity/Role.java
/mnt/c/Users/chbakouras/Projects/dachs-alert/dachs-alert-domain/src/main/java/com/datascouting/dachs/alert/domain/entity/AbstractEntity.java
/mnt/c/Users/chbakouras/Projects/dachs-alert/dachs-alert-domain/src/main/java/com/datascouting/dachs/alert/domain/generator/UUIDGenerator.java
/mnt/c/Users/chbakouras/Projects/dachs-alert/dachs-alert-domain/src/main/java/com/datascouting/dachs/alert/domain/repository/custom/CustomUserConnectionRepository.java
/mnt/c/Users/chbakouras/Projects/dachs-alert/dachs-alert-domain/src/main/java/com/datascouting/dachs/alert/domain/repository/RoleRepository.java
/mnt/c/Users/chbakouras/Projects/dachs-alert/dachs-alert-domain/src/main/java/com/datascouting/dachs/alert/domain/repository/custom/CustomUserConnectionRepositoryImpl.java
/mnt/c/Users/chbakouras/Projects/dachs-alert/dachs-alert-domain/target/generated-sources/java/com/datascouting/dachs/alert/domain/entity/QTweetHateDetection.java
/mnt/c/Users/chbakouras/Projects/dachs-alert/dachs-alert-domain/target/generated-sources/java/com/datascouting/dachs/alert/domain/entity/QAbstractEntity.java
/mnt/c/Users/chbakouras/Projects/dachs-alert/dachs-alert-domain/target/generated-sources/java/com/datascouting/dachs/alert/domain/entity/QUser.java
/mnt/c/Users/chbakouras/Projects/dachs-alert/dachs-alert-domain/src/main/java/com/datascouting/dachs/alert/domain/entity/User.java
/mnt/c/Users/chbakouras/Projects/dachs-alert/dachs-alert-domain/src/main/java/com/datascouting/dachs/alert/domain/repository/TweetHateDetectionRepository.java
/mnt/c/Users/chbakouras/Projects/dachs-alert/dachs-alert-domain/src/main/java/com/datascouting/dachs/alert/domain/repository/GenericRepository.java
/mnt/c/Users/chbakouras/Projects/dachs-alert/dachs-alert-domain/src/main/java/com/datascouting/dachs/alert/domain/entity/TweetHateDetection.java
